…
Create a data frame comprised of: x: a random sample of size 1000 from a standard Normal distribution y: a random sample of size 1000 from a standard Normal distribution A logical vector indicating whether the x + y &gt; 0 A numeric vector created by coercing the above logical vector A factor vector created by coercing the above logical vector

``` r
p2_df = tibble(
  x = rnorm(n = 1000, mean = 0, sd = 1),
  y = rnorm(n = 1000, mean = 0, sd = 1),
  vec_logical_p2 = c(x + y > 0),
  vec_numeric_p2 = c(vec_logical_p2),
  vec_factor_p2 = c(vec_logical_p2)
)

p2_df
```

    ## # A tibble: 1,000 x 5
    ##         x      y vec_logical_p2 vec_numeric_p2 vec_factor_p2
    ##     <dbl>  <dbl> <lgl>          <lgl>          <lgl>        
    ##  1 -0.820 -1.66  FALSE          FALSE          FALSE        
    ##  2  0.487  0.811 TRUE           TRUE           TRUE         
    ##  3  0.738 -1.91  FALSE          FALSE          FALSE        
    ##  4  0.576 -1.25  FALSE          FALSE          FALSE        
    ##  5 -0.305  0.998 TRUE           TRUE           TRUE         
    ##  6  1.51  -0.541 TRUE           TRUE           TRUE         
    ##  7  0.390 -0.216 TRUE           TRUE           TRUE         
    ##  8 -0.621 -1.62  FALSE          FALSE          FALSE        
    ##  9 -2.21  -1.45  FALSE          FALSE          FALSE        
    ## 10  1.12   0.351 TRUE           TRUE           TRUE         
    ## # ... with 990 more rows
…
